alu.vcd
$date
  Mon Oct 31 15:55:25 2016
$end
$version
  GHDL v0
$end
$timescale
  1 fs
$end
$var reg 2 ! op[1:0] $end
$var reg 16 " a_temp[15:0] $end
$var reg 16 # b_temp[15:0] $end
$var reg 16 $ output_temp[15:0] $end
$var reg 1 % ctemp $end
$var reg 1 & ztemp $end
$scope module module_alu $end
$var reg 2 ' aluop[1:0] $end
$var reg 16 ( a[15:0] $end
$var reg 16 ) b[15:0] $end
$var reg 1 * c $end
$var reg 1 + z $end
$var reg 16 , output[15:0] $end
$upscope $end
$enddefinitions $end
#0
b00 !
b1100000110010000 "
b1011000001010111 #
b0111000111100111 $
1%
0&
b00 '
b1100000110010000 (
b1011000001010111 )
1*
0+
b0111000111100111 ,
#1000000
b0011110111100000 "
b1001110010101100 #
b1101101010001100 $
0%
b0011110111100000 (
b1001110010101100 )
0*
b1101101010001100 ,
#2000000
b0010100010101111 "
b0101101001101101 #
b1000001100011100 $
b0010100010101111 (
b0101101001101101 )
b1000001100011100 ,
#3000000
b1100101011001100 "
b0001111010101100 #
b1110100101111000 $
b1100101011001100 (
b0001111010101100 )
b1110100101111000 ,
#4000000
b0000011010101100 "
b1111010100011100 #
b1111101111001000 $
b0000011010101100 (
b1111010100011100 )
b1111101111001000 ,
#5000000
b0010110000110101 "
b0011001101100011 #
b0101111110011000 $
b0010110000110101 (
b0011001101100011 )
b0101111110011000 ,
#6000000
b0101011101100100 "
b1101101000010001 #
b0011000101110101 $
1%
b0101011101100100 (
b1101101000010001 )
1*
b0011000101110101 ,
#7000000
b0111100010000001 "
b1001101100110110 #
b0001001110110111 $
b0111100010000001 (
b1001101100110110 )
b0001001110110111 ,
#8000000
b0000101111110001 "
b0111000010100110 #
b0111110010010111 $
0%
b0000101111110001 (
b0111000010100110 )
0*
b0111110010010111 ,
#9000000
b1100110111011010 "
b1100011110011101 #
b1001010101110111 $
1%
b1100110111011010 (
b1100011110011101 )
1*
b1001010101110111 ,
#10000000
b1010011011000101 "
b1100000100010110 #
b0110011111011011 $
b1010011011000101 (
b1100000100010110 )
b0110011111011011 ,
#11000000
b0001011100110000 "
b1111001111000001 #
b0000101011110001 $
b0001011100110000 (
b1111001111000001 )
b0000101011110001 ,
#12000000
b1010110100011011 "
b1100010100100101 #
b0111001001000000 $
b1010110100011011 (
b1100010100100101 )
b0111001001000000 ,
#13000000
b0011101100110011 "
b0110101111101110 #
b1010011100100001 $
0%
b0011101100110011 (
b0110101111101110 )
0*
b1010011100100001 ,
#14000000
b0010110010111011 "
b0011000011110111 #
b0101110110110010 $
b0010110010111011 (
b0011000011110111 )
b0101110110110010 ,
#15000000
b0101110100111111 "
b1011101011000100 #
b0001100000000011 $
1%
b0101110100111111 (
b1011101011000100 )
1*
b0001100000000011 ,
#16000000
b1100110000101101 "
b1011100100001110 #
b1000010100111011 $
b1100110000101101 (
b1011100100001110 )
b1000010100111011 ,
#17000000
b1101000101110100 "
b1110100001001011 #
b1011100110111111 $
b1101000101110100 (
b1110100001001011 )
b1011100110111111 ,
#18000000
b0111001001100101 "
b1001101111011101 #
b0000111001000010 $
b0111001001100101 (
b1001101111011101 )
b0000111001000010 ,
#19000000
b1011100001110100 "
b0010011111100101 #
b1110000001011001 $
0%
b1011100001110100 (
b0010011111100101 )
0*
b1110000001011001 ,
#20000000
b0100000001011010 "
b1100010110010000 #
b0000010111101010 $
1%
b0100000001011010 (
b1100010110010000 )
1*
b0000010111101010 ,
#21000000
b1010010001011101 "
b1010011000000000 #
b0100101001011101 $
b1010010001011101 (
b1010011000000000 )
b0100101001011101 ,
#22000000
b1000100011011001 "
b0100010111011000 #
b1100111010110001 $
0%
b1000100011011001 (
b0100010111011000 )
0*
b1100111010110001 ,
#23000000
b1111101011000011 "
b1110110100001001 #
b1110011111001100 $
1%
b1111101011000011 (
b1110110100001001 )
1*
b1110011111001100 ,
#24000000
b0111101110010001 "
b0100110000100010 #
b1100011110110011 $
0%
b0111101110010001 (
b0100110000100010 )
0*
b1100011110110011 ,
#25000000
b1001011000001001 "
b1000001010111000 #
b0001100011000001 $
1%
b1001011000001001 (
b1000001010111000 )
1*
b0001100011000001 ,
#26000000
b0011001010000100 "
b0111110011001111 #
b1010111101010011 $
0%
b0011001010000100 (
b0111110011001111 )
0*
b1010111101010011 ,
#27000000
b1100101101100110 "
b1000111101010010 #
b0101101010111000 $
1%
b1100101101100110 (
b1000111101010010 )
1*
b0101101010111000 ,
#28000000
b1111011011100111 "
b0011001011000100 #
b0010100110101011 $
b1111011011100111 (
b0011001011000100 )
b0010100110101011 ,
#29000000
b0010010101000010 "
b1110001000011100 #
b0000011101011110 $
b0010010101000010 (
b1110001000011100 )
b0000011101011110 ,
#30000000
b0101001111110100 "
b0010000011011011 #
b0111010011001111 $
0%
b0101001111110100 (
b0010000011011011 )
0*
b0111010011001111 ,
#31000000
b0101100011010011 "
b0110011010011001 #
b1011111101101100 $
b0101100011010011 (
b0110011010011001 )
b1011111101101100 ,
#32000000
b0010111000011000 "
b1011111101011101 #
b1110110101110101 $
b0010111000011000 (
b1011111101011101 )
b1110110101110101 ,
#33000000
b1000101110110010 "
b0010111101100010 #
b1011101100010100 $
b1000101110110010 (
b0010111101100010 )
b1011101100010100 ,
#34000000
b1000010010010100 "
b0101011111111101 #
b1101110010010001 $
b1000010010010100 (
b0101011111111101 )
b1101110010010001 ,
#35000000
b0000011100000111 "
b1011110100001111 #
b1100010000010110 $
b0000011100000111 (
b1011110100001111 )
b1100010000010110 ,
#36000000
b0111010001110111 "
b0011101110001011 #
b1011000000000010 $
b0111010001110111 (
b0011101110001011 )
b1011000000000010 ,
#37000000
b1100001110110000 "
b1000110010010011 #
b0101000001000011 $
1%
b1100001110110000 (
b1000110010010011 )
1*
b0101000001000011 ,
#38000000
b0101110100010111 "
b0100100010000101 #
b1010010110011100 $
0%
b0101110100010111 (
b0100100010000101 )
0*
b1010010110011100 ,
#39000000
b0100001100011110 "
b1000111011001001 #
b1101000111100111 $
b0100001100011110 (
b1000111011001001 )
b1101000111100111 ,
#40000000
b1001110000000011 "
b0110110000111110 #
b0000100001000001 $
1%
b1001110000000011 (
b0110110000111110 )
1*
b0000100001000001 ,
#41000000
b1010000001101001 "
b0111000001101110 #
b0001000011010111 $
b1010000001101001 (
b0111000001101110 )
b0001000011010111 ,
#42000000
b1011011111001110 "
b0111111001000000 #
b0011011000001110 $
b1011011111001110 (
b0111111001000000 )
b0011011000001110 ,
#43000000
b1000111110100011 "
b0111110000100000 #
b0000101111000011 $
b1000111110100011 (
b0111110000100000 )
b0000101111000011 ,
#44000000
b1110011110001110 "
b1101001001011010 #
b1011100111101000 $
b1110011110001110 (
b1101001001011010 )
b1011100111101000 ,
#45000000
b0000011011010010 "
b1110101100111010 #
b1111001000001100 $
0%
b0000011011010010 (
b1110101100111010 )
0*
b1111001000001100 ,
#46000000
b1011100111000110 "
b1011000101010010 #
b0110101100011000 $
1%
b1011100111000110 (
b1011000101010010 )
1*
b0110101100011000 ,
#47000000
b1010000010011100 "
b1001111000100111 #
b0011111011000011 $
b1010000010011100 (
b1001111000100111 )
b0011111011000011 ,
#48000000
b1100011101111111 "
b1010010000011011 #
b0110101110011010 $
b1100011101111111 (
b1010010000011011 )
b0110101110011010 ,
#49000000
b1001111110111110 "
b0000110101000000 #
b1010110011111110 $
0%
b1001111110111110 (
b0000110101000000 )
0*
b1010110011111110 ,
#50000000
b0001001101011011 "
b1000010011111111 #
b1001100001011010 $
b0001001101011011 (
b1000010011111111 )
b1001100001011010 ,
#51000000
b0011101100101010 "
b1001111000001001 #
b1101100100110011 $
b0011101100101010 (
b1001111000001001 )
b1101100100110011 ,
#52000000
b0001001101111001 "
b1000110100011101 #
b1010000010010110 $
b0001001101111001 (
b1000110100011101 )
b1010000010010110 ,
#53000000
b1011001001001010 "
b0011101111101001 #
b1110111000110011 $
b1011001001001010 (
b0011101111101001 )
b1110111000110011 ,
#54000000
b0001001111001101 "
b0001110101101000 #
b0011000100110101 $
b0001001111001101 (
b0001110101101000 )
b0011000100110101 ,
#55000000
b0011011011011000 "
b0001000011001011 #
b0100011110100011 $
b0011011011011000 (
b0001000011001011 )
b0100011110100011 ,
#56000000
b1000111101111100 "
b0001001001101001 #
b1010000111100101 $
b1000111101111100 (
b0001001001101001 )
b1010000111100101 ,
#57000000
b0100010101010101 "
b0110110110100100 #
b1011001011111001 $
b0100010101010101 (
b0110110110100100 )
b1011001011111001 ,
#58000000
b0111011100101010 "
b1011111101101000 #
b0011011010010010 $
1%
b0111011100101010 (
b1011111101101000 )
1*
b0011011010010010 ,
#59000000
b1001011001101101 "
b1010000011000111 #
b0011011100110100 $
b1001011001101101 (
b1010000011000111 )
b0011011100110100 ,
#60000000
b1000011011100111 "
b1011010101100111 #
b0011110001001110 $
b1000011011100111 (
b1011010101100111 )
b0011110001001110 ,
#61000000
b0111000111001000 "
b0000100111110111 #
b0111101110111111 $
0%
b0111000111001000 (
b0000100111110111 )
0*
b0111101110111111 ,
#62000000
b0010000101011011 "
b1101100001001010 #
b1111100110100101 $
b0010000101011011 (
b1101100001001010 )
b1111100110100101 ,
#63000000
b0110100001100011 "
b1011110001001101 #
b0010010010110000 $
1%
b0110100001100011 (
b1011110001001101 )
1*
b0010010010110000 ,
#64000000
b0001000110111110 "
b1010010011111011 #
b1011011010111001 $
0%
b0001000110111110 (
b1010010011111011 )
0*
b1011011010111001 ,
#65000000
b0110011110100000 "
b0000110001110000 #
b0111010000010000 $
b0110011110100000 (
b0000110001110000 )
b0111010000010000 ,
#66000000
b1110111011110010 "
b0001001000101111 #
b0000000100100001 $
1%
b1110111011110010 (
b0001001000101111 )
1*
b0000000100100001 ,
#67000000
b0111001001100110 "
b1010101111100011 #
b0001111001001001 $
b0111001001100110 (
b1010101111100011 )
b0001111001001001 ,
#68000000
b1011000001110000 "
b0111000111110010 #
b0010001001100010 $
b1011000001110000 (
b0111000111110010 )
b0010001001100010 ,
#69000000
b1001101110000100 "
b0100011010001100 #
b1110001000010000 $
0%
b1001101110000100 (
b0100011010001100 )
0*
b1110001000010000 ,
#70000000
b0110010011111111 "
b1000001100001101 #
b1110100000001100 $
b0110010011111111 (
b1000001100001101 )
b1110100000001100 ,
#71000000
b1111110000010101 "
b1100111110110000 #
b1100101111000101 $
1%
b1111110000010101 (
b1100111110110000 )
1*
b1100101111000101 ,
#72000000
b0011010111100111 "
b0101100001101101 #
b1000111001010100 $
0%
b0011010111100111 (
b0101100001101101 )
0*
b1000111001010100 ,
#73000000
b1111010110000101 "
b1011100001011010 #
b1010110111011111 $
1%
b1111010110000101 (
b1011100001011010 )
1*
b1010110111011111 ,
#74000000
b0110000101000001 "
b0000100010100111 #
b0110100111101000 $
0%
b0110000101000001 (
b0000100010100111 )
0*
b0110100111101000 ,
#75000000
b1000101111111010 "
b1001000011110010 #
b0001110011101100 $
1%
b1000101111111010 (
b1001000011110010 )
1*
b0001110011101100 ,
#76000000
b1000010111110101 "
b0000011100000111 #
b1000110011111100 $
0%
b1000010111110101 (
b0000011100000111 )
0*
b1000110011111100 ,
#77000000
b0001010011011111 "
b0000101110100010 #
b0010000010000001 $
b0001010011011111 (
b0000101110100010 )
b0010000010000001 ,
#78000000
b0100001110010100 "
b0011001000001011 #
b0111010110011111 $
b0100001110010100 (
b0011001000001011 )
b0111010110011111 ,
#79000000
b0001110101110110 "
b0101010101101100 #
b0111001011100010 $
b0001110101110110 (
b0101010101101100 )
b0111001011100010 ,
#80000000
b0100011000100011 "
b0001010000100011 #
b0101101001000110 $
b0100011000100011 (
b0001010000100011 )
b0101101001000110 ,
#81000000
b0111100111010111 "
b0101011101001100 #
b1101000100100011 $
b0111100111010111 (
b0101011101001100 )
b1101000100100011 ,
#82000000
b0011111110010010 "
b0001001100110101 #
b0101001011000111 $
b0011111110010010 (
b0001001100110101 )
b0101001011000111 ,
#83000000
b1101011101111001 "
b1000111100111000 #
b0110011010110001 $
1%
b1101011101111001 (
b1000111100111000 )
1*
b0110011010110001 ,
#84000000
b0101001011111110 "
b1000111010110010 #
b1110000110110000 $
0%
b0101001011111110 (
b1000111010110010 )
0*
b1110000110110000 ,
#85000000
b1100101011011000 "
b1000111101001000 #
b0101101000100000 $
1%
b1100101011011000 (
b1000111101001000 )
1*
b0101101000100000 ,
#86000000
b0101111010011010 "
b0000111001100001 #
b0110110011111011 $
0%
b0101111010011010 (
b0000111001100001 )
0*
b0110110011111011 ,
#87000000
b0101100010110010 "
b0100110101100101 #
b1010011000010111 $
b0101100010110010 (
b0100110101100101 )
b1010011000010111 ,
#88000000
b0000001111010010 "
b1000010010101001 #
b1000100001111011 $
b0000001111010010 (
b1000010010101001 )
b1000100001111011 ,
#89000000
b1000000110010010 "
b0010011001100000 #
b1010011111110010 $
b1000000110010010 (
b0010011001100000 )
b1010011111110010 ,
#90000000
b0000101001111001 "
b1010010000101101 #
b1010111010100110 $
b0000101001111001 (
b1010010000101101 )
b1010111010100110 ,
#91000000
b1110010101001111 "
b0101010010110111 #
b0011101000000110 $
1%
b1110010101001111 (
b0101010010110111 )
1*
b0011101000000110 ,
#92000000
b0110010110100001 "
b1100101000000101 #
b0010111110100110 $
b0110010110100001 (
b1100101000000101 )
b0010111110100110 ,
#93000000
b0010110111010101 "
b1000101101110111 #
b1011100101001100 $
0%
b0010110111010101 (
b1000101101110111 )
0*
b1011100101001100 ,
#94000000
b0100110010100100 "
b1011010101111101 #
b0000001000100001 $
1%
b0100110010100100 (
b1011010101111101 )
1*
b0000001000100001 ,
#95000000
b1010000011000101 "
b0111111101101111 #
b0010000000110100 $
b1010000011000101 (
b0111111101101111 )
b0010000000110100 ,
#96000000
b0111110011011111 "
b1101101100010011 #
b0101011111110010 $
b0111110011011111 (
b1101101100010011 )
b0101011111110010 ,
#97000000
b0000111111010110 "
b1110100010100111 #
b1111100001111101 $
0%
b0000111111010110 (
b1110100010100111 )
0*
b1111100001111101 ,
#98000000
b1000010100010111 "
b0000000111101100 #
b1000011100000011 $
b1000010100010111 (
b0000000111101100 )
b1000011100000011 ,
#99000000
b1101100101111100 "
b1111010110011111 #
b1100111100011011 $
1%
b1101100101111100 (
b1111010110011111 )
1*
b1100111100011011 ,
#100000000
b01 !
b0110010101010011 "
b0110110111100100 #
b1001101010111111 $
0%
b01 '
b0110010101010011 (
b0110110111100100 )
0*
b1001101010111111 ,
#101000000
b0110101111010000 "
b0001110101100111 #
b1111011010111111 $
b0110101111010000 (
b0001110101100111 )
b1111011010111111 ,
#102000000
b0011101111111011 "
b1101010111100101 #
b1110111000011110 $
b0011101111111011 (
b1101010111100101 )
b1110111000011110 ,
#103000000
b1010001110110110 "
b1011100001000100 #
b0101111111111011 $
b1010001110110110 (
b1011100001000100 )
b0101111111111011 ,
#104000000
b0111110100011011 "
b1100101011000000 #
b1011011111111111 $
b0111110100011011 (
b1100101011000000 )
b1011011111111111 ,
#105000000
b1011001111111001 "
b0111001001001100 #
b1100110110110111 $
b1011001111111001 (
b0111001001001100 )
b1100110110110111 ,
#106000000
b1101011001100000 "
b0101101101010010 #
b1010110110111111 $
b1101011001100000 (
b0101101101010010 )
b1010110110111111 ,
#107000000
b1100011000010000 "
b1110001011011100 #
b0011110111101111 $
b1100011000010000 (
b1110001011011100 )
b0011110111101111 ,
#108000000
b1110011100011100 "
b0100010110101000 #
b1011101011110111 $
b1110011100011100 (
b0100010110101000 )
b1011101011110111 ,
#109000000
b0000101001000010 "
b0011110111100110 #
b1111011110111101 $
b0000101001000010 (
b0011110111100110 )
b1111011110111101 ,
#110000000
b0111010111011011 "
b0001101011101111 #
b1110111100110100 $
b0111010111011011 (
b0001101011101111 )
b1110111100110100 ,
#111000000
b1100010101100111 "
b0001000000001001 #
b1111111111111110 $
b1100010101100111 (
b0001000000001001 )
b1111111111111110 ,
#112000000
b1110010111001010 "
b0001000100110011 #
b1111111011111101 $
b1110010111001010 (
b0001000100110011 )
b1111111011111101 ,
#113000000
b1101011010010110 "
b1000011000101011 #
b0111100111111101 $
b1101011010010110 (
b1000011000101011 )
b0111100111111101 ,
#114000000
b1111000110011011 "
b1010010100101101 #
b0101111011110110 $
b1111000110011011 (
b1010010100101101 )
b0101111011110110 ,
#115000000
b0011110101101010 "
b0010010110001100 #
b1101101011110111 $
b0011110101101010 (
b0010010110001100 )
b1101101011110111 ,
#116000000
b0001000100111010 "
b0110100000100000 #
b1111111111011111 $
b0001000100111010 (
b0110100000100000 )
b1111111111011111 ,
#117000000
b0001000101110111 "
b1010101110101111 #
b1111111011011000 $
b0001000101110111 (
b1010101110101111 )
b1111111011011000 ,
#118000000
b0010101010000010 "
b0100101001010001 #
b1111010111111111 $
b0010101010000010 (
b0100101001010001 )
b1111010111111111 ,
#119000000
b1111001111000101 "
b0100100001100000 #
b1011111110111111 $
b1111001111000101 (
b0100100001100000 )
b1011111110111111 ,
#120000000
b1010110111010010 "
b0111001010010101 #
b1101111101101111 $
b1010110111010010 (
b0111001010010101 )
b1101111101101111 ,
#121000000
b1001000011101101 "
b0011101100010110 #
b1110111111111011 $
b1001000011101101 (
b0011101100010110 )
b1110111111111011 ,
#122000000
b1100001100111011 "
b1011100000110111 #
b0111111111001100 $
b1100001100111011 (
b1011100000110111 )
b0111111111001100 ,
#123000000
b1100011000000110 "
b1000001000011100 #
b0111110111111011 $
b1100011000000110 (
b1000001000011100 )
b0111110111111011 ,
#124000000
b1000000110001011 "
b1000010100001110 #
b0111111011110101 $
b1000000110001011 (
b1000010100001110 )
b0111111011110101 ,
#125000000
b0011010001111110 "
b0100101011101111 #
b1111111110010001 $
b0011010001111110 (
b0100101011101111 )
b1111111110010001 ,
#126000000
b0011001110011111 "
b1110001010001100 #
b1101110101110011 $
b0011001110011111 (
b1110001010001100 )
b1101110101110011 ,
#127000000
b0001001001110000 "
b1110000110001111 #
b1111111111111111 $
b0001001001110000 (
b1110000110001111 )
b1111111111111111 ,
#128000000
b1010111110000000 "
b0100011000111001 #
b1111100111111111 $
b1010111110000000 (
b0100011000111001 )
b1111100111111111 ,
#129000000
b1111111001010000 "
b0111000100111000 #
b1000111111101111 $
b1111111001010000 (
b0111000100111000 )
b1000111111101111 ,
#130000000
b0110000101111101 "
b0110000000001000 #
b1001111111110111 $
b0110000101111101 (
b0110000000001000 )
b1001111111110111 ,
#131000000
b0100111000001100 "
b1100110001101100 #
b1011001111110011 $
b0100111000001100 (
b1100110001101100 )
b1011001111110011 ,
#132000000
b1000111101001010 "
b1100110100100011 #
b0111001011111101 $
b1000111101001010 (
b1100110100100011 )
b0111001011111101 ,
#133000000
b0000010111011011 "
b1011010010000001 #
b1111101101111110 $
b0000010111011011 (
b1011010010000001 )
b1111101101111110 ,
#134000000
b0110000000011101 "
b1110110100001111 #
b1001111111110010 $
b0110000000011101 (
b1110110100001111 )
b1001111111110010 ,
#135000000
b0101100111000001 "
b0001111001011011 #
b1110011110111110 $
b0101100111000001 (
b0001111001011011 )
b1110011110111110 ,
#136000000
b1101000100000100 "
b1010000100011001 #
b0111111011111111 $
b1101000100000100 (
b1010000100011001 )
b0111111011111111 ,
#137000000
b1001111010100111 "
b1110010101001000 #
b0111101111111111 $
b1001111010100111 (
b1110010101001000 )
b0111101111111111 ,
#138000000
b0011011001001100 "
b0111101011010010 #
b1100110110111111 $
b0011011001001100 (
b0111101011010010 )
b1100110110111111 ,
#139000000
b0001011101001101 "
b0001100010000100 #
b1110111111111011 $
b0001011101001101 (
b0001100010000100 )
b1110111111111011 ,
#140000000
b1000011001000000 "
b0100011101110010 #
b1111100110111111 $
b1000011001000000 (
b0100011101110010 )
b1111100110111111 ,
#141000000
b1000000001111000 "
b1000110001001001 #
b0111111110110111 $
b1000000001111000 (
b1000110001001001 )
b0111111110110111 ,
#142000000
b0000111000000001 "
b1110001010110111 #
b1111110111111110 $
b0000111000000001 (
b1110001010110111 )
b1111110111111110 ,
#143000000
b1000111111001111 "
b0011010101011101 #
b1111101010110010 $
b1000111111001111 (
b0011010101011101 )
b1111101010110010 ,
#144000000
b1110000011111101 "
b1111000111100001 #
b0001111100011110 $
b1110000011111101 (
b1111000111100001 )
b0001111100011110 ,
#145000000
b0000000111100111 "
b1000001101011100 #
b1111111010111011 $
b0000000111100111 (
b1000001101011100 )
b1111111010111011 ,
#146000000
b0110101001001010 "
b1100000100000101 #
b1011111111111111 $
b0110101001001010 (
b1100000100000101 )
b1011111111111111 ,
#147000000
b0011001011111110 "
b1111000011011101 #
b1100111100100011 $
b0011001011111110 (
b1111000011011101 )
b1100111100100011 ,
#148000000
b1100011111011100 "
b0000111110010000 #
b1111100001101111 $
b1100011111011100 (
b0000111110010000 )
b1111100001101111 ,
#149000000
b0010101101100001 "
b1100011111001010 #
b1111110010111111 $
b0010101101100001 (
b1100011111001010 )
b1111110010111111 ,
#150000000
b1100110011100111 "
b1010010100110100 #
b0111101111011011 $
b1100110011100111 (
b1010010100110100 )
b0111101111011011 ,
#151000000
b1000110001100100 "
b0001100000001010 #
b1111011111111111 $
b1000110001100100 (
b0001100000001010 )
b1111011111111111 ,
#152000000
b0010001001101000 "
b0000101000101001 #
b1111110111010111 $
b0010001001101000 (
b0000101000101001 )
b1111110111010111 ,
#153000000
b1001101010010010 "
b1010100101100101 #
b0111011111111111 $
b1001101010010010 (
b1010100101100101 )
b0111011111111111 ,
#154000000
b0000100101111111 "
b1011001000000011 #
b1111111111111100 $
b0000100101111111 (
b1011001000000011 )
b1111111111111100 ,
#155000000
b1011000101010001 "
b0010111111011011 #
b1101111010101110 $
b1011000101010001 (
b0010111111011011 )
b1101111010101110 ,
#156000000
b1010111111011110 "
b1111010111101011 #
b0101101000110101 $
b1010111111011110 (
b1111010111101011 )
b0101101000110101 ,
#157000000
b1001100001111100 "
b0000110010100011 #
b1111011111011111 $
b1001100001111100 (
b0000110010100011 )
b1111011111011111 ,
#158000000
b1110111001001010 "
b1001101101111010 #
b0111010110110101 $
b1110111001001010 (
b1001101101111010 )
b0111010110110101 ,
#159000000
b1111010011111110 "
b0101100001100110 #
b1010111110011001 $
b1111010011111110 (
b0101100001100110 )
b1010111110011001 ,
#160000000
b0010110000101000 "
b1111000011000110 #
b1101111111111111 $
b0010110000101000 (
b1111000011000110 )
b1101111111111111 ,
#161000000
b0101010011000011 "
b0011100010111010 #
b1110111101111101 $
b0101010011000011 (
b0011100010111010 )
b1110111101111101 ,
#162000000
b1100101101110111 "
b1111011110100100 #
b0011110011011011 $
b1100101101110111 (
b1111011110100100 )
b0011110011011011 ,
#163000000
b1100001001011001 "
b0010011110101100 #
b1111110111110111 $
b1100001001011001 (
b0010011110101100 )
b1111110111110111 ,
#164000000
b0111001111001111 "
b0110010001010010 #
b1001111110111101 $
b0111001111001111 (
b0110010001010010 )
b1001111110111101 ,
#165000000
b1110111001100101 "
b1110000110110110 #
b0001111111011011 $
b1110111001100101 (
b1110000110110110 )
b0001111111011011 ,
#166000000
b0000000000010000 "
b1100000001111110 #
b1111111111101111 $
b0000000000010000 (
b1100000001111110 )
b1111111111101111 ,
#167000000
b0001000101100111 "
b0001010110001111 #
b1110111011111000 $
b0001000101100111 (
b0001010110001111 )
b1110111011111000 ,
#168000000
b0010111101010011 "
b1000100001010111 #
b1111011110101100 $
b0010111101010011 (
b1000100001010111 )
b1111011110101100 ,
#169000000
b0100101000000010 "
b0001101111001011 #
b1111010111111101 $
b0100101000000010 (
b0001101111001011 )
b1111010111111101 ,
#170000000
b0111010111101101 "
b0001001101001110 #
b1110111010110011 $
b0111010111101101 (
b0001001101001110 )
b1110111010110011 ,
#171000000
b0101101000011110 "
b1010101111011001 #
b1111010111100111 $
b0101101000011110 (
b1010101111011001 )
b1111010111100111 ,
#172000000
b1111010111111110 "
b1101000010011000 #
b0010111101100111 $
b1111010111111110 (
b1101000010011000 )
b0010111101100111 ,
#173000000
b0000101111100101 "
b0010010001000101 #
b1111111110111010 $
b0000101111100101 (
b0010010001000101 )
b1111111110111010 ,
#174000000
b0001010001001111 "
b0101011101100010 #
b1110101110111101 $
b0001010001001111 (
b0101011101100010 )
b1110101110111101 ,
#175000000
b0110001110110011 "
b0100001000110111 #
b1011110111001100 $
b0110001110110011 (
b0100001000110111 )
b1011110111001100 ,
#176000000
b0101100011000000 "
b1101001111100001 #
b1010111100111111 $
b0101100011000000 (
b1101001111100001 )
b1010111100111111 ,
#177000000
b1001001001011001 "
b0001001001101011 #
b1110110110110110 $
b1001001001011001 (
b0001001001101011 )
b1110110110110110 ,
#178000000
b0101000110011101 "
b1100111110011011 #
b1011111001100110 $
b0101000110011101 (
b1100111110011011 )
b1011111001100110 ,
#179000000
b0010111010010111 "
b1111000100000111 #
b1101111111111000 $
b0010111010010111 (
b1111000100000111 )
b1101111111111000 ,
#180000000
b0010000010110101 "
b0101111001000110 #
b1111111111111011 $
b0010000010110101 (
b0101111001000110 )
b1111111111111011 ,
#181000000
b0101010010010101 "
b1001111001101001 #
b1110101111111110 $
b0101010010010101 (
b1001111001101001 )
b1110101111111110 ,
#182000000
b0001110011001000 "
b1110010110010100 #
b1111101101111111 $
b0001110011001000 (
b1110010110010100 )
b1111101101111111 ,
#183000000
b0000100000111000 "
b0010111101101100 #
b1111011111010111 $
b0000100000111000 (
b0010111101101100 )
b1111011111010111 ,
#184000000
b1001111000110110 "
b1111010110111100 #
b0110101111001011 $
b1001111000110110 (
b1111010110111100 )
b0110101111001011 ,
#185000000
b1000111111011100 "
b1110000100001010 #
b0111111011110111 $
b1000111111011100 (
b1110000100001010 )
b0111111011110111 ,
#186000000
b0001110100111101 "
b0000011111110111 #
b1111101011001010 $
b0001110100111101 (
b0000011111110111 )
b1111101011001010 ,
#187000000
b1001110101110110 "
b0010111100011111 #
b1111001011101001 $
b1001110101110110 (
b0010111100011111 )
b1111001011101001 ,
#188000000
b0110010011000111 "
b1010110110010100 #
b1101101101111011 $
b0110010011000111 (
b1010110110010100 )
b1101101101111011 ,
#189000000
b0100011110110000 "
b1110000110100110 #
b1011111001011111 $
b0100011110110000 (
b1110000110100110 )
b1011111001011111 ,
#190000000
b0000101000000011 "
b1001011010101111 #
b1111110111111100 $
b0000101000000011 (
b1001011010101111 )
b1111110111111100 ,
#191000000
b0010010011110011 "
b1010001110110011 #
b1101111101001100 $
b0010010011110011 (
b1010001110110011 )
b1101111101001100 ,
#192000000
b1111000110101000 "
b0111001011101110 #
b1000111101010111 $
b1111000110101000 (
b0111001011101110 )
b1000111101010111 ,
#193000000
b0001111110111000 "
b1101000100110101 #
b1110111011001111 $
b0001111110111000 (
b1101000100110101 )
b1110111011001111 ,
#194000000
b1000010010111010 "
b0011000110001101 #
b1111111101110111 $
b1000010010111010 (
b0011000110001101 )
b1111111101110111 ,
#195000000
b0101111110100010 "
b1110000000110001 #
b1011111111011111 $
b0101111110100010 (
b1110000000110001 )
b1011111111011111 ,
#196000000
b1001001110100111 "
b0011110010001100 #
b1110111101111011 $
b1001001110100111 (
b0011110010001100 )
b1110111101111011 ,
#197000000
b0111000100001101 "
b0010001000010110 #
b1101111111111011 $
b0111000100001101 (
b0010001000010110 )
b1101111111111011 ,
#198000000
b0100001111000110 "
b0011101001010000 #
b1111110110111111 $
b0100001111000110 (
b0011101001010000 )
b1111110110111111 ,
#199000000
b1010100111111110 "
b1100001100011001 #
b0111111011100111 $
b1010100111111110 (
b1100001100011001 )
b0111111011100111 ,
#200000000
b10 !
b1110101011000101 "
b0001111001000101 #
b0110001010000000 $
b10 '
b1110101011000101 (
b0001111001000101 )
b0110001010000000 ,
#201000000
b1100101100010111 "
b0001101011010001 #
b1000101110000000 $
b1100101100010111 (
b0001101011010001 )
b1000101110000000 ,
#202000000
b0000111010000100 "
b1010010111010111 #
b0100001000000000 $
b0000111010000100 (
b1010010111010111 )
b0100001000000000 ,
#203000000
b0110101010100000 "
b0100011000001001 #
b0101000000000000 $
b0110101010100000 (
b0100011000001001 )
b0101000000000000 ,
#204000000
b1001111101110111 "
b0011110001101110 #
b1011101110000000 $
b1001111101110111 (
b0011110001101110 )
b1011101110000000 ,
#205000000
b0001110000000011 "
b1001000110111011 #
b0000000110000000 $
b0001110000000011 (
b1001000110111011 )
b0000000110000000 ,
#206000000
b1011001011101111 "
b1110110001001010 #
b0111011110000000 $
b1011001011101111 (
b1110110001001010 )
b0111011110000000 ,
#207000000
b0011010100110000 "
b1110011111000110 #
b1001100000000000 $
b0011010100110000 (
b1110011111000110 )
b1001100000000000 ,
#208000000
b0101000001011010 "
b1010100010001000 #
b0010110100000000 $
b0101000001011010 (
b1010100010001000 )
b0010110100000000 ,
#209000000
b0111110101000101 "
b1000000000001100 #
b1010001010000000 $
b0111110101000101 (
b1000000000001100 )
b1010001010000000 ,
#210000000
b0001110011000110 "
b1000110100011001 #
b0110001100000000 $
b0001110011000110 (
b1000110100011001 )
b0110001100000000 ,
#211000000
b0111110011101000 "
b0001011001001110 #
b0111010000000000 $
b0111110011101000 (
b0001011001001110 )
b0111010000000000 ,
#212000000
b0111101010001100 "
b1010100111010101 #
b0100011000000000 $
b0111101010001100 (
b1010100111010101 )
b0100011000000000 ,
#213000000
b1001001010110111 "
b1011011000101001 #
b0101101110000000 $
b1001001010110111 (
b1011011000101001 )
b0101101110000000 ,
#214000000
b0010100110011010 "
b1101001101110011 #
b1100110100000000 $
b0010100110011010 (
b1101001101110011 )
b1100110100000000 ,
#215000000
b1000001110110000 "
b0100000010000000 #
b1101100000000000 $
b1000001110110000 (
b0100000010000000 )
b1101100000000000 ,
#216000000
b1111100101101100 "
b1110001010000011 #
b1011011000000000 $
b1111100101101100 (
b1110001010000011 )
b1011011000000000 ,
#217000000
b1111111110111001 "
b0011001011111000 #
b1101110010000000 $
b1111111110111001 (
b0011001011111000 )
b1101110010000000 ,
